# Blender v2.67 (sub 1) OBJ File: 'Crate1.blend'
# www.blender.org
mtllib skybox.mtl
o Cube_Cube.001
v -1.000000 -1.000000 1.000000
v -1.000000 -1.000000 -1.000000
v 1.000000 -1.000000 -1.000000
v 1.000000 -1.000000 1.000000
v -1.000000 1.000000 1.000000
v -1.000000 1.000000 -1.000000
v 1.000000 1.000000 -1.000000
v 1.000000 1.000000 1.000000
vt 0.250000 0.000000
vt 0.500000 0.000000
vt 0.000000 0.330000
vt 0.250000 0.330000
vt 0.500000 0.330000
vt 0.750000 0.330000
vt 1.000000 0.330000
vt 0.000000 0.660000
vt 0.250000 0.660000
vt 0.500000 0.660000
vt 0.750000 0.660000
vt 1.000000 0.660000
vt 0.250000 1.000000
vt 0.500000 1.000000
usemtl skybox_mtl
s off
# left
f 1/8 2/9 6/4 5/3
# back
f 2/9 3/10 7/5 6/4
# right
f 3/10 4/11 8/6 7/5
# front
f 4/11 1/12 5/7 8/6
# bottom
f 4/14 3/10 2/9 1/13
# top
f 5/1 6/4 7/5 8/2
